…
Use `collect()` to pull data into memory:

``` r
d <- lf |>
  filter(AREA < 0.1) |>
  select(NAME, AREA, geom) |>
  collect()
#> Warning in new_CppObject_xp(fields$.module, fields$.pointer, ...): SpatiaLite
#> is not available
d
#> # A tibble: 34 × 4
#>        FID NAME        AREA geom                                                
#>    <int64> <chr>      <dbl> <wk_wkb>                                            
#>  1       0 Alleghany  0.061 <MULTIPOLYGON (((-81.23989 36.36536, -81.24069 36.3…
#>  2       1 Currituck  0.07  <MULTIPOLYGON (((-76.00897 36.3196, -76.01735 36.33…
#>  3       2 Hertford   0.097 <MULTIPOLYGON (((-76.74506 36.23392, -76.98069 36.2…
#>  4       3 Camden     0.062 <MULTIPOLYGON (((-76.00897 36.3196, -75.95718 36.19…
#>  5       4 Gates      0.091 <MULTIPOLYGON (((-76.56251 36.34057, -76.60424 36.3…
#>  6       5 Vance      0.072 <MULTIPOLYGON (((-78.49252 36.17359, -78.51472 36.1…
#>  7       6 Pasquotank 0.053 <MULTIPOLYGON (((-76.29893 36.21423, -76.32423 36.2…
#>  8       7 Watauga    0.081 <MULTIPOLYGON (((-81.80622 36.10456, -81.81715 36.1…
#>  9       8 Perquimans 0.063 <MULTIPOLYGON (((-76.48053 36.07979, -76.53696 36.0…
#> 10       9 Chowan     0.044 <MULTIPOLYGON (((-76.68874 36.29452, -76.64822 36.3…
#> # ℹ 24 more rows
```
…
lazysf supports two SQL dialects:

**SQLITE** (default): Full SQLite syntax including subqueries, spatial
functions, `CAST`, `GROUP BY`, `ORDER BY`. Required for dbplyr to work
properly. This is GDAL’s embedded SQLite engine, available for any
format.

``` r
lazysf(f) |>
  group_by(SID74) |>
  summarise(n = n(), mean_area = mean(AREA, na.rm = TRUE)) |>
  collect()
#> Warning in new_CppObject_xp(fields$.module, fields$.pointer, ...): SpatiaLite
#> is not available
#> # A tibble: 23 × 4
#>        FID SID74     n mean_area
#>    <int64> <dbl> <int>     <dbl>
#>  1       0     0    13  0.084846
#>  2       1     1    11  0.083091
#>  3       2     2     8  0.13088 
#>  4       3     3     6  0.10783 
#>  5       4     4    13  0.14715 
#>  6       5     5    11  0.12545 
#>  7       6     6     4  0.16575 
#>  8       7     7     4  0.14975 
#>  9       8     8     5  0.134   
#> 10       9     9     2  0.1605  
#> # ℹ 13 more rows
```
…
